Obtendo lista de qualis periódicos através do R
…
# Obter a tabela de evento para saber qual código do triênio 2010-2012 
op_event <- get_options(page, form = "evento")
print(op_event) # código 14
#> # A tibble: 2 x 2
#>   value name                                             
#>   <chr> <chr>                                            
#> 1 156   CLASSIFICAÇÕES DE PERIÓDICOS QUADRIÊNIO 2013-2016
#> 2 14    CLASSIFICAÇÕES DE PERIÓDICOS TRIÊNIO 2010-2012

# Descobrir qual código corresponde a área de computação 
op_area <- get_options(page, form = "area")
print(op_area) # código 2
#> # A tibble: 49 x 2
#>    value name                                                               
#>    <chr> <chr>                                                              
#>  1 27    "ADMINISTRAÇÃO PÚBLICA E DE EMPRESAS, CIÊNCIAS CONTÁBEIS E TURISMO"
#>  2 35    "ANTROPOLOGIA / ARQUEOLOGIA                        "               
#>  3 29    "ARQUITETURA, URBANISMO E DESIGN"                                  
#>  4 11    "ARTES"                                                            
#>  5 3     "ASTRONOMIA / FÍSICA                               "               
#>  6 7     "BIODIVERSIDADE"                                                   
#>  7 48    "BIOTECNOLOGIA                                     "               
#>  8 2     "CIÊNCIA DA COMPUTAÇÃO                             "               
#>  9 25    "CIÊNCIA DE ALIMENTOS                              "               
#> 10 39    "CIÊNCIA POLÍTICA E RELAÇÕES INTERNACIONAIS        "               
#> # … with 39 more rows
…
